<?xml version="1.0" encoding="utf-8"?>
<svg viewBox="0 0 128 128" style="shape-rendering: crispedges;" preserveAspectRatio="none" xmlns="http://www.w3.org/2000/svg" xmlns:bx="https://boxy-svg.com">
  <defs>
    <bx:grid x="0" y="0" width="2" height="2"/>
    <filter id="gaussian-blur-filter-0" color-interpolation-filters="sRGB" x="-500%" y="-500%" width="1000%" height="1000%" bx:preset="gaussian-blur 1 2.6">
      <feGaussianBlur stdDeviation="2.6 2.6" edgeMode="none"/>
    </filter>
    <radialGradient gradientUnits="userSpaceOnUse" cx="67.234" cy="-20.909" r="48" id="gradient-0" gradientTransform="matrix(0.442967, 0.345131, -0.205444, 0.263683, 47.92211, 24.308752)">
      <stop offset="0" style="stop-color: rgb(255, 255, 255);"/>
      <stop offset="1" style="stop-color: rgb(255, 0, 0);"/>
    </radialGradient>
    <radialGradient gradientUnits="userSpaceOnUse" cx="65.399" cy="219.01" r="48" id="gradient-2" gradientTransform="matrix(0.792262, 0.737032, -0.267413, 0.287453, 46.753066, -19.156192)">
      <stop offset="0" style="stop-color: rgba(255, 255, 255, 0.75);"/>
      <stop offset="1" style="stop-color: rgba(255, 255, 255, 0);"/>
    </radialGradient>
  </defs>
  <g>
    <title>Ruby</title>
    <ellipse style="stroke: rgb(0, 0, 0); fill: url(#gradient-0);" cx="64" cy="64" rx="48" ry="48">
      <title>Ruby_border</title>
    </ellipse>
    <ellipse style="stroke: rgb(0, 0, 0); fill: url(#gradient-2); stroke-opacity: 0; visibility: hidden;" cx="64" cy="64" rx="48" ry="48">
      <title>Ruby_border</title>
    </ellipse>
    <ellipse style="fill: rgba(216, 216, 216, 0); filter: url(#gaussian-blur-filter-0); stroke: rgb(0, 0, 0); stroke-width: 4px;" cx="64" cy="64" rx="48" ry="48">
      <title>Ruby_shadow</title>
    </ellipse>
  </g>
</svg>