<?xml version="1.0" encoding="utf-8"?>
<svg viewBox="0 0 128 128" style="shape-rendering: crispedges;" preserveAspectRatio="none" xmlns="http://www.w3.org/2000/svg" xmlns:bx="https://boxy-svg.com">
  <defs>
    <bx:grid x="0" y="0" width="2" height="2"/>
    <linearGradient gradientUnits="userSpaceOnUse" x1="320" y1="8" x2="320" y2="120" id="gradient-3" gradientTransform="matrix(0.72648, 0.687186, -0.986737, 1.007092, 155.420234, -223.956259)">
      <stop offset="0" style="stop-color: rgb(255, 255, 255);"/>
      <stop offset="1" style=""/>
    </linearGradient>
    <filter id="drop-shadow-filter-2" color-interpolation-filters="sRGB" x="-500%" y="-500%" width="1000%" height="1000%" bx:preset="drop-shadow 1 0 0 3 1 rgba(0,0,0,1)">
      <feGaussianBlur in="SourceAlpha" stdDeviation="3"/>
      <feOffset dx="0" dy="0"/>
      <feComponentTransfer result="offsetblur">
        <feFuncA id="spread-ctrl" type="linear" slope="2"/>
      </feComponentTransfer>
      <feFlood flood-color="rgba(0,0,0,1)"/>
      <feComposite in2="offsetblur" operator="in"/>
      <feMerge>
        <feMergeNode/>
        <feMergeNode in="SourceGraphic"/>
      </feMerge>
    </filter>
  </defs>
  <g transform="matrix(1, 0, 0, 1, -255.999664, 0)">
    <title>Emerald</title>
    <path d="M 318.6 10.09 Q 320 8.71 321.4 10.09 L 346.6 34.937 Q 348 36.317 348 39.078 L 348 88.772 Q 348 91.532 346.6 92.913 L 321.4 117.76 Q 320 119.14 318.6 117.76 L 293.4 92.913 Q 292 91.533 292 88.772 L 292 39.078 Q 292 36.317 293.4 34.937 Z" style="stroke: rgb(0, 0, 0); fill: rgb(255, 255, 255); fill-opacity: 0; stroke-width: 2px; filter: url(#drop-shadow-filter-2); pointer-events: none;" bx:shape="n-gon 320 63.925 32.332 55.215 6 0.05 1@38e51e3a">
      <title>Emerald_shadow</title>
    </path>
    <g transform="matrix(0.56, 0, 0, 1.12, 292, 8.000002)" style="pointer-events: none;">
      <path d="M 63 50 L 49 63 L 63 63 Z" style="fill: rgb(204,255,189);"/>
      <path d="M 63 50 L 49 49 L 49 63 Z" style="fill: rgb(233,255,225);"/>
      <path d="M 63 50 L 50 36 L 49 49 Z" style="fill: rgb(229,255,220);"/>
      <path d="M 49 63 L 49.181 78.127 L 63 63 L 49 63 Z" style="fill: rgb(188,255,171);"/>
      <path d="M 63 50 L 63 36 L 50 36 Z" style="fill: rgb(201,255,185);"/>
      <path d="M 78 64 L 77 50 L 63 63 Z" style="fill: rgb(151,255,131);"/>
      <path d="M 63 63 L 77 50 L 63 50 Z" style="fill: rgb(187,255,170);"/>
      <path d="M 63 50 L 77 50 L 63 36 Z" style="fill: rgb(186,255,168);"/>
      <path d="M 35 36 L 35 50 L 49 49 Z" style="fill: rgb(209,255,196);"/>
      <path d="M 49 49 L 35 50 L 49 63 Z" style="fill: rgb(227,255,218);"/>
      <path d="M 49 63 L 35 64 L 49.181 78.127 L 49 63 Z" style="fill: rgb(183,255,164);"/>
      <path d="M 35 50 L 35 64 L 49 63 Z" style="fill: rgb(196,255,180);"/>
      <path d="M 49.181 78.127 L 63.205 77.59 L 63 63 L 49.181 78.127 Z" style="fill: rgb(152,255,132);"/>
      <path d="M 63.205 77.59 L 78 64 L 63 63 L 63.205 77.59 Z" style="fill: rgb(130,255,111);"/>
      <path d="M 50 36 L 35 36 L 49 49 Z" style="fill: rgb(210,255,197);"/>
      <path d="M 35 64 L 35 77 L 49.181 78.127 L 35 64 Z" style="fill: rgb(147,255,126);"/>
      <path d="M 49.181 78.127 L 50 91 L 63.205 77.59 L 49.181 78.127 Z" style="fill: rgb(150,231,135);"/>
      <path d="M 63.205 77.59 L 76.771 76.054 L 78 64 L 63.205 77.59 Z" style="fill: rgb(67,255,60);"/>
      <path d="M 92 49 L 78 35 L 77 50 Z" style="fill: rgb(145,230,130);"/>
      <path d="M 77 50 L 78 35 L 63 36 Z" style="fill: rgb(148,255,128);"/>
      <path d="M 63 36 L 50 21 L 50 36 Z" style="fill: rgb(183,255,164);"/>
      <path d="M 50 36 L 36 21 L 35 36 Z" style="fill: rgb(163,255,143);"/>
      <path d="M 36 91 L 50 91 L 49.181 78.127 L 36 91 Z" style="fill: rgb(142,215,130);"/>
      <path d="M 63.205 77.59 L 64.898 92.449 L 76.771 76.054 L 63.205 77.59 Z" style="fill: rgb(84,227,74);"/>
      <path d="M 35 36 L 21 49 L 35 50 Z" style="fill: rgb(178,255,159);"/>
      <path d="M 35 50 L 21 64 L 35 64 Z" style="fill: rgb(162,255,142);"/>
      <path d="M 35 64 L 21 64 L 35 77 Z" style="fill: rgb(122,255,103);"/>
      <path d="M 21 49 L 21 64 L 35 50 Z" style="fill: rgb(163,255,143);"/>
      <path d="M 35 77 L 36 91 L 49.181 78.127 L 35 77 Z" style="fill: rgb(129,232,113);"/>
      <path d="M 63 21 L 50 21 L 63 36 Z" style="fill: rgb(147,255,126);"/>
      <path d="M 35 36 L 21 36 L 21 49 Z" style="fill: rgb(141,255,121);"/>
      <path d="M 78 35 L 63 21 L 63 36 Z" style="fill: rgb(125,255,106);"/>
      <path d="M 50 91 L 65.459 92.168 L 63.205 77.59 L 50 91 Z" style="fill: rgb(124,212,112);"/>
      <path d="M 92.734 78.301 L 92 64 L 78 64 L 92.734 78.301 Z" style="fill: rgb(80,212,72);"/>
      <path d="M 78 64 L 92 49 L 77 50 Z" style="fill: rgb(149,230,134);"/>
      <path d="M 92 64 L 92 49 L 78 64 Z" style="fill: rgb(124,211,112);"/>
      <path d="M 22.844 76.771 L 36 91 L 35 77 L 22.844 76.771 Z" style="fill: rgb(78,230,69);"/>
      <path d="M 50 91 L 49.4 100 L 54.98 97.419 L 65.571 91.888 L 50 91 Z" style="fill: rgb(127,180,122);"/>
      <path d="M 21 22 L 21 36 L 35 36 Z" style="fill: rgb(93,255,79);"/>
      <path d="M 83.257 83.369 L 94.84 77.496 L 76.771 76.054 L 83.257 83.369 Z" style="fill: rgb(2,188,34);"/>
      <path d="M 76.771 76.054 L 92.858 78.053 L 78 64 L 76.771 76.054 Z" style="fill: rgb(45,228,48);"/>
      <path d="M 50 21 L 36 21 L 50 36 Z" style="fill: rgb(163,255,143);"/>
      <path d="M 64.112 92.673 L 77.439 86.343 L 76.771 76.054 L 64.112 92.673 Z" style="fill: rgb(38,212,45);"/>
      <path d="M 91 35 L 78 22 L 78 35 Z" style="fill: rgb(77,228,69);"/>
      <path d="M 78 35 L 78 22 L 63 21 Z" style="fill: rgb(60,255,55);"/>
      <path d="M 92 49 L 91 35 L 78 35 Z" style="fill: rgb(119,212,107);"/>
      <path d="M 21 64 L 22.844 76.771 L 35 77 L 21 64 Z" style="fill: rgb(57,255,53);"/>
      <path d="M 7 36 L 8 50 L 21 49 Z" style="fill: rgb(138,209,127);"/>
      <path d="M 21 49 L 8 50 L 21 64 Z" style="fill: rgb(148,226,133);"/>
      <path d="M 21 64 L 7.439 79.01 L 22.844 76.771 L 21 64 Z" style="fill: rgb(40,225,46);"/>
      <path d="M 8 50 L 8 63 L 21 64 Z" style="fill: rgb(124,210,112);"/>
      <path d="M 63 21 L 49.776 4.802 L 50 21 L 63 21 Z" style="fill: rgb(148,226,133);"/>
      <path d="M 50 21 L 49.888 5.251 L 36 21 L 50 21 Z" style="fill: rgb(146,226,132);"/>
      <path d="M 64.01 6.832 L 49.888 5.251 L 63 21 L 64.01 6.832 Z" style="fill: rgb(124,209,113);"/>
      <path d="M 76.766 86.68 L 83.369 83.257 L 76.771 76.054 L 76.766 86.68 Z" style="fill: rgb(2,187,34);"/>
      <path d="M 100 64 L 100 55.38461538461539 L 92 64 Z" style="fill: rgb(105,167,101);"/>
      <path d="M 36 21 L 21 22 L 35 36 Z" style="fill: rgb(93,255,79);"/>
      <path d="M 21 36 L 7 36 L 21 49 Z" style="fill: rgb(126,224,112);"/>
      <path d="M 33.868 7.832 L 21 22 L 36 21 L 33.868 7.832 Z" style="fill: rgb(79,226,71);"/>
      <path d="M 15.743 83.023 L 37.637 93.732 L 22.844 76.771 L 15.743 83.023 Z" style="fill: rgb(2,182,34);"/>
      <path d="M 22.844 76.771 L 36.87 94.158 L 36 91 L 22.844 76.771 Z" style="fill: rgb(34,212,43);"/>
      <path d="M 42.795 96.409 L 49.4 100 L 50 91 L 42.795 96.409 Z" style="fill: rgb(119,167,116);"/>
      <path d="M 92 64 L 100 55.38461538461539 L 100 49.61538461538461 L 92 49 Z" style="fill: rgb(127,180,122);"/>
      <path d="M 92 49 L 100 40.38461538461539 L 100 35 L 91 35 Z" style="fill: rgb(107,181,100);"/>
      <path d="M 100 64 L 92 64 L 100 71.42857142857143 Z" style="fill: rgb(67,167,66);"/>
      <path d="M 91 35 L 91 21 L 78 22 Z" style="fill: rgb(29,213,41);"/>
      <path d="M 72.95 11.713 L 63.673 6.663 L 63 21 L 72.95 11.713 Z" style="fill: rgb(80,207,73);"/>
      <path d="M 100 35 L 100 30 L 91 21 L 91 35 Z" style="fill: rgb(63,181,62);"/>
      <path d="M 72.614 11.377 L 63 21 L 78 22 L 72.614 11.377 Z" style="fill: rgb(44,225,48);"/>
      <path d="M 36.673 93.604 L 44.03 96.97 L 50 91 L 36 91 L 36.673 93.604 Z" style="fill: rgb(111,182,104);"/>
      <path d="M 100 75.148 L 100 71.429 L 92 64 L 91.867 78.672 L 100 75.148 Z" style="fill: rgb(40,179,48);"/>
      <path d="M 50 0 L 47.479 1.291 L 33.756 8 L 50.112 5.363 L 50 0 Z" style="fill: rgb(125,179,121);"/>
      <path d="M 50.112 5.195 L 33.531 7.888 L 36 21 L 50.112 5.195 Z" style="fill: rgb(122,210,110);"/>
      <path d="M 8 63 L 7.776 78.898 L 21 64 L 8 63 Z" style="fill: rgb(79,209,72);"/>
      <path d="M 21 22 L 7 36 L 21 36 Z" style="fill: rgb(81,224,72);"/>
      <path d="M 8 50 L 0 56.93333333333334 L 0 63 L 8 63 Z" style="fill: rgb(111,177,106);"/>
      <path d="M 8 63 L 0 70.467 L 0.224 75.223 L 8.224 78.898 L 8 63 Z" style="fill: rgb(40,177,47);"/>
      <path d="M 100 49.61538461538461 L 100 40.38461538461539 L 92 49 Z" style="fill: rgb(118,167,115);"/>
      <path d="M 91 21 L 72.389 11.32 L 78 22 L 91 21 Z" style="fill: rgb(2,199,34);"/>
      <path d="M 7.102 78.673 L 16.529 83.359 L 22.844 76.771 L 7.102 78.673 Z" style="fill: rgb(2,182,34);"/>
      <path d="M 17.875 16.08 L 7.786 21.224 L 21 22 L 17.875 16.08 Z" style="fill: rgb(2,180,34);"/>
      <path d="M 21 22 L 7 21 L 7 36 Z" style="fill: rgb(33,207,43);"/>
      <path d="M 34.44 7.827 L 24.64 12.72 L 21 22 L 34.44 7.827 Z" style="fill: rgb(28,209,41);"/>
      <path d="M 100 30 L 100.112 25.135 L 91 21 L 100 30 Z" style="fill: rgb(23,166,40);"/>
      <path d="M 63.449 6.888 L 54.205 2.188 L 50 0 L 50 5.363 L 63.449 6.888 Z" style="fill: rgb(126,178,122);"/>
      <path d="M 0 42.5 L 0 49.46666666666667 L 8 50 L 7 36 Z" style="fill: rgb(123,177,119);"/>
      <path d="M 0 49.46666666666667 L 0 56.93333333333334 L 8 50 Z" style="fill: rgb(122,168,120);"/>
      <path d="M 0 35.46153846153846 L 0 42.5 L 7 36 Z" style="fill: rgb(102,167,98);"/>
      <path d="M 7.673 21.449 L 0.337 24.947 L 0 35.462 L 7 36 L 7.673 21.449 Z" style="fill: rgb(64,176,63);"/>
      <path d="M 0 63 L 0 70.46666666666667 L 8 63 Z" style="fill: rgb(70,167,69);"/>
      <path d="M 25.152 12.443 L 16.416 16.753 L 21 22 L 25.152 12.443 Z" style="fill: rgb(2,180,34);"/>
    </g>
    <path d="M 320 8 L 348 36 L 348 92 L 320 120 L 292 92 L 292 36 Z" style="stroke: rgb(0, 0, 0); stroke-opacity: 0; fill: url(#gradient-3); mix-blend-mode: color-burn; fill-opacity: 0.5; pointer-events: none;" bx:shape="n-gon 320 64 32.332 56 6 0 1@cf1014d7">
      <title>Emerald_glass</title>
    </path>
    <path d="M 318.599983332 9.4 Q 320 8 321.400016668 9.4 L 346.600316687 34.6 Q 348.000333355 36 348.000333355 38.8 L 348.000333355 89.2 Q 348.000333355 92 346.600316687 93.4 L 321.400016668 118.6 Q 320 120 318.599983332 118.6 L 293.399683313 93.4 Q 291.999666645 92 291.999666645 89.2 L 291.999666645 38.8 Q 291.999666645 36 293.399683313 34.6 Z" style="stroke: rgb(0, 0, 0); fill: rgb(255, 255, 255); fill-opacity: 0; stroke-width: 2px; pointer-events: none;" bx:shape="n-gon 320 64 32.332 56 6 0.05 1@91055db2">
      <title>Emerald_border</title>
    </path>
  </g>
</svg>